             Info: Writing states. 2024/10/17 at 09:55:08


        Info: Finished writing states. 2024/10/17 at 09:55:08

Info: SCF converged in   13 iterations

Info: Number of matrix-vector products:       1077
Info: Writing output to static/
Info: Finished writing information to 'restart/gs'.

             Calculation ended on 2024/10/17 at 09:55:08

                          Walltime:  00.518s

Octopus emitted 16 warnings.
