*********************** SCF CYCLE ITER #   13 ************************
 etot  = -7.92930368E+00 abs_ev   =  5.93E-07 rel_ev   =  2.41E-06
 ediff =        7.76E-07 abs_dens =  1.11E-06 rel_dens =  1.38E-07
Matrix vector products:     50
Converged eigenvectors:     10

#  State  KPoint  Eigenvalue [H]  Occupation    Error
      1       1       -0.257166    2.000000   ( 3.1E-08)
      1       2       -0.184854    2.000000   ( 5.1E-08)
      2       2       -0.079338    2.000000   ( 6.2E-08)
      2       1        0.010755    2.000000   ( 5.4E-08)
      3       2        0.023126    2.000000   ( 6.5E-08)
      4       2        0.073568    2.000000   ( 6.0E-08)
      3       1        0.127870    2.000000   ( 5.5E-08)
      4       1        0.127870    2.000000   ( 5.5E-08)
      5       2        0.208837    0.000000   ( 8.3E-08)
      5       1        0.231968    0.000000   ( 6.1E-08)

Density of states:

----------%--------------%--------------%------%------------------%---
----------%--------------%--------------%------%------------------%---
----------%--------------%--------------%------%------------------%---
----------%--------------%--------------%------%------%-----------%---
----------%--------------%--------------%------%------%-----------%---
----------%--------------%--------------%------%------%-----------%---
----------%--------------%--------------%------%------%-----------%---
%---------%--------------%------------%-%------%------%-----------%--%
%---------%--------------%------------%-%------%------%-----------%--%
%---------%--------------%------------%-%------%------%-----------%--%
                                                      ^


Elapsed time for SCF step    13:          0.01
**********************************************************************
