CalculationMode = td

Dimensions = 1

FromScratch = NO

ExperimentalFeatures = YES

#############################
# GS
#############################

%Coordinates
"H1D" | 0.0
%

%Species
'H1D' | species_user_defined | potential_formula | '-1.0/(abs(x)+0.002)' | valence | 1
%

OnlyUserDefinedInitialStates = YES

BoxShape = sphere
Radius = 10
Spacing = 0.2

TheoryLevel = independent_particles


#############################
# TD
#############################

TDTimeStep = 0.008
TDPropagationTime = 60

#############################
# PES
#############################
PhotoElectronSpectrum = pes_mask

%PESMaskSize
  3 | Radius
%

PESMaskMode = fullmask_mode
PESMaskPlaneWaveProjection = fft_map
PESMaskEnlargeFactor = 8


##########################
#LASER
##########################

amplitude = .7763
omega = 1.5

%TDExternalFields
  vector_potential | 1 | 0 | 0 | omega | "ramp"
%

%TDFunctions
 "ramp" | tdf_trapezoidal | amplitude | 50 | 29.3 | 4.2
%
