Eigenvalues [H]
 #st  Spin   Eigenvalue      Occupation
   1   --    -1.097222       2.000000
   2   --    -0.587371       2.000000
   3   --    -0.587371       2.000000
   4   --    -0.587371       2.000000
   5   --    -0.167078       0.000000
   6   --    -0.091683       0.000000
   7   --    -0.091307       0.000000
   8   --    -0.090223       0.000000
   9   --    -0.056462       0.000000

