CalculationMode = gs
ExperimentalFeatures = yes
FromScratch = yes

ReportMemory = yes

Radius = 4
Spacing = 0.6

XYZCoordinates = "10-fullerene.geometry.xyz"


LCAOStart = lcao_states_batch

Eigensolver = chebyshev_filter
OptimizeChebyshevFilterDegree = no
ExtraStatesInPercent = 17

SCFCalculatePartialCharges = yes

PoissonSolver = isf

%Output
 ldos | axis_x
%
%LDOSEnergies
 -0.122339 
%
