# -*- coding: utf-8 mode: shell-script -*-

CalculationMode = gs

bond_length = 1.5
disp = 0.1
%Coordinates
"N" |  -bond_length/2 + disp |  0.0 |  0.0
"N" |   bond_length/2 + disp |  0.0 |  0.0
%

BoxShape = sphere

radius = 8
spacing = 0.40


ConvRelDens = 1e-7

EigenSolver = cg
EigenSolverTolerance = 1e-8

MixField = density

PoissonSolver = isf
