# -*- coding: utf-8 mode: shell-script -*-

CalculationMode = gs
FromScratch = yes

bond_length = 2.7
%Coordinates
"N" |  -bond_length/2 |  0.0 |  0.0
"N" |   bond_length/2 |  0.0 |  0.0
%

BoxShape = sphere

radius = 8
spacing = 0.40


ConvRelDens = 1e-7

EigenSolver = cg
EigenSolverTolerance = 1e-8

PoissonSolver = fft
PoissonFFTKernel = multipole_correction

MixField = density
