CalculationMode = gs
FromScratch = yes

%Coordinates
"Cl" | 0 | 0 | 0
%

PseudopotentialSet = hgh_lda
SpinComponents = spinors

Spacing = 0.5
Radius = 7

XCFunctional = oep_x + lda_c_pz

%Occupations
 2/3 | 2/3 | 2/3
%

ConvRelDens = 5e-7
GuessMagnetDensity = user_defined
%AtomsMagnetDirection
 0 | 0 | 1
%

%StaticMagneticField
 0 | 0 | 1e-3
%

SCFCalculateForces = no

FilterPotentials = filter_none

# Fix the Poisson solver to avoid GPU-CPU discrepancy
PoissonSolver = isf

ExtraStates = 1

MixingSpinDensityMatrix = yes
