CalculationMode = gs
FromScratch = yes

Radius  = 6
Spacing = 0.5

PseudopotentialSet = hgh_lda

%Coordinates
  "Li" | 0 | 0 | 0
%

SpinComponents = spinors
RelativisticCorrection = spin_orbit

ExperimentalFeatures = yes
Eigensolver = evolution
EigensolverImaginaryTime = 0.4
TDExponentialMethod = lanczos

PoissonSolver = fft

LCAOSaveMemory = yes
