%!PS-Adobe-2.0
%%Title: ARPES_PATH.eps
%%Creator: gnuplot 5.4 patchlevel 4
%%CreationDate: Thu Oct 17 15:58:07 2024
%%DocumentFonts: (atend)
%%BoundingBox: 50 50 662 842
%%Orientation: Landscape
%%Pages: (atend)
%%EndComments
%%BeginProlog
/gnudict 256 dict def
gnudict begin
%
% The following true/false flags may be edited by hand if desired.
% The unit line width and grayscale image gamma correction may also be changed.
%
/Color true def
/Blacktext false def
/Solid false def
/Dashlength 1 def
/Landscape true def
/Level1 false def
/Level3 false def
/Rounded false def
/ClipToBoundingBox false def
/SuppressPDFMark false def
/TransparentPatterns false def
/gnulinewidth 5.000 def
/userlinewidth gnulinewidth def
/Gamma 1.0 def
/BackgroundColor {-1.000 -1.000 -1.000} def
%
/vshift -60 def
/dl1 {
  10.0 Dashlength userlinewidth gnulinewidth div mul mul mul
  Rounded { currentlinewidth 0.75 mul sub dup 0 le { pop 0.01 } if } if
} def
/dl2 {
  10.0 Dashlength userlinewidth gnulinewidth div mul mul mul
  Rounded { currentlinewidth 0.75 mul add } if
} def
/hpt_ 31.5 def
/vpt_ 31.5 def
/hpt hpt_ def
/vpt vpt_ def
/doclip {
  ClipToBoundingBox {
    newpath 50 50 moveto 662 50 lineto 662 842 lineto 50 842 lineto closepath
    clip
  } if
} def
%
% Gnuplot Prolog Version 5.2 (Dec 2017)
%
%/SuppressPDFMark true def
%
/M {moveto} bind def
/L {lineto} bind def
/R {rmoveto} bind def
/V {rlineto} bind def
/N {newpath moveto} bind def
/Z {closepath} bind def
/C {setrgbcolor} bind def
/f {rlineto fill} bind def
/g {setgray} bind def
/Gshow {show} def   % May be redefined later in the file to support UTF-8
/vpt2 vpt 2 mul def
/hpt2 hpt 2 mul def
/Lshow {currentpoint stroke M 0 vshift R 
	Blacktext {gsave 0 setgray textshow grestore} {textshow} ifelse} def
/Rshow {currentpoint stroke M dup stringwidth pop neg vshift R
	Blacktext {gsave 0 setgray textshow grestore} {textshow} ifelse} def
/Cshow {currentpoint stroke M dup stringwidth pop -2 div vshift R 
	Blacktext {gsave 0 setgray textshow grestore} {textshow} ifelse} def
/UP {dup vpt_ mul /vpt exch def hpt_ mul /hpt exch def
  /hpt2 hpt 2 mul def /vpt2 vpt 2 mul def} def
/DL {Color {setrgbcolor Solid {pop []} if 0 setdash}
 {pop pop pop 0 setgray Solid {pop []} if 0 setdash} ifelse} def
/BL {stroke userlinewidth 2 mul setlinewidth
	Rounded {1 setlinejoin 1 setlinecap} if} def
/AL {stroke userlinewidth 2 div setlinewidth
	Rounded {1 setlinejoin 1 setlinecap} if} def
/UL {dup gnulinewidth mul /userlinewidth exch def
	dup 1 lt {pop 1} if 10 mul /udl exch def} def
/PL {stroke userlinewidth setlinewidth
	Rounded {1 setlinejoin 1 setlinecap} if} def
3.8 setmiterlimit
% Classic Line colors (version 5.0)
/LCw {1 1 1} def
/LCb {0 0 0} def
/LCa {0 0 0} def
/LC0 {1 0 0} def
/LC1 {0 1 0} def
/LC2 {0 0 1} def
/LC3 {1 0 1} def
/LC4 {0 1 1} def
/LC5 {1 1 0} def
/LC6 {0 0 0} def
/LC7 {1 0.3 0} def
/LC8 {0.5 0.5 0.5} def
% Default dash patterns (version 5.0)
/LTB {BL [] LCb DL} def
/LTw {PL [] 1 setgray} def
/LTb {PL [] LCb DL} def
/LTa {AL [1 udl mul 2 udl mul] 0 setdash LCa setrgbcolor} def
/LT0 {PL [] LC0 DL} def
/LT1 {PL [2 dl1 3 dl2] LC1 DL} def
/LT2 {PL [1 dl1 1.5 dl2] LC2 DL} def
/LT3 {PL [6 dl1 2 dl2 1 dl1 2 dl2] LC3 DL} def
/LT4 {PL [1 dl1 2 dl2 6 dl1 2 dl2 1 dl1 2 dl2] LC4 DL} def
/LT5 {PL [4 dl1 2 dl2] LC5 DL} def
/LT6 {PL [1.5 dl1 1.5 dl2 1.5 dl1 1.5 dl2 1.5 dl1 6 dl2] LC6 DL} def
/LT7 {PL [3 dl1 3 dl2 1 dl1 3 dl2] LC7 DL} def
/LT8 {PL [2 dl1 2 dl2 2 dl1 6 dl2] LC8 DL} def
/SL {[] 0 setdash} def
/Pnt {stroke [] 0 setdash gsave 1 setlinecap M 0 0 V stroke grestore} def
/Dia {stroke [] 0 setdash 2 copy vpt add M
  hpt neg vpt neg V hpt vpt neg V
  hpt vpt V hpt neg vpt V closepath stroke
  Pnt} def
/Pls {stroke [] 0 setdash vpt sub M 0 vpt2 V
  currentpoint stroke M
  hpt neg vpt neg R hpt2 0 V stroke
 } def
/Box {stroke [] 0 setdash 2 copy exch hpt sub exch vpt add M
  0 vpt2 neg V hpt2 0 V 0 vpt2 V
  hpt2 neg 0 V closepath stroke
  Pnt} def
/Crs {stroke [] 0 setdash exch hpt sub exch vpt add M
  hpt2 vpt2 neg V currentpoint stroke M
  hpt2 neg 0 R hpt2 vpt2 V stroke} def
/TriU {stroke [] 0 setdash 2 copy vpt 1.12 mul add M
  hpt neg vpt -1.62 mul V
  hpt 2 mul 0 V
  hpt neg vpt 1.62 mul V closepath stroke
  Pnt} def
/Star {2 copy Pls Crs} def
/BoxF {stroke [] 0 setdash exch hpt sub exch vpt add M
  0 vpt2 neg V hpt2 0 V 0 vpt2 V
  hpt2 neg 0 V closepath fill} def
/TriUF {stroke [] 0 setdash vpt 1.12 mul add M
  hpt neg vpt -1.62 mul V
  hpt 2 mul 0 V
  hpt neg vpt 1.62 mul V closepath fill} def
/TriD {stroke [] 0 setdash 2 copy vpt 1.12 mul sub M
  hpt neg vpt 1.62 mul V
  hpt 2 mul 0 V
  hpt neg vpt -1.62 mul V closepath stroke
  Pnt} def
/TriDF {stroke [] 0 setdash vpt 1.12 mul sub M
  hpt neg vpt 1.62 mul V
  hpt 2 mul 0 V
  hpt neg vpt -1.62 mul V closepath fill} def
/DiaF {stroke [] 0 setdash vpt add M
  hpt neg vpt neg V hpt vpt neg V
  hpt vpt V hpt neg vpt V closepath fill} def
/Pent {stroke [] 0 setdash 2 copy gsave
  translate 0 hpt M 4 {72 rotate 0 hpt L} repeat
  closepath stroke grestore Pnt} def
/PentF {stroke [] 0 setdash gsave
  translate 0 hpt M 4 {72 rotate 0 hpt L} repeat
  closepath fill grestore} def
/Circle {stroke [] 0 setdash 2 copy
  hpt 0 360 arc stroke Pnt} def
/CircleF {stroke [] 0 setdash hpt 0 360 arc fill} def
/C0 {BL [] 0 setdash 2 copy moveto vpt 90 450 arc} bind def
/C1 {BL [] 0 setdash 2 copy moveto
	2 copy vpt 0 90 arc closepath fill
	vpt 0 360 arc closepath} bind def
/C2 {BL [] 0 setdash 2 copy moveto
	2 copy vpt 90 180 arc closepath fill
	vpt 0 360 arc closepath} bind def
/C3 {BL [] 0 setdash 2 copy moveto
	2 copy vpt 0 180 arc closepath fill
	vpt 0 360 arc closepath} bind def
/C4 {BL [] 0 setdash 2 copy moveto
	2 copy vpt 180 270 arc closepath fill
	vpt 0 360 arc closepath} bind def
/C5 {BL [] 0 setdash 2 copy moveto
	2 copy vpt 0 90 arc
	2 copy moveto
	2 copy vpt 180 270 arc closepath fill
	vpt 0 360 arc} bind def
/C6 {BL [] 0 setdash 2 copy moveto
	2 copy vpt 90 270 arc closepath fill
	vpt 0 360 arc closepath} bind def
/C7 {BL [] 0 setdash 2 copy moveto
	2 copy vpt 0 270 arc closepath fill
	vpt 0 360 arc closepath} bind def
/C8 {BL [] 0 setdash 2 copy moveto
	2 copy vpt 270 360 arc closepath fill
	vpt 0 360 arc closepath} bind def
/C9 {BL [] 0 setdash 2 copy moveto
	2 copy vpt 270 450 arc closepath fill
	vpt 0 360 arc closepath} bind def
/C10 {BL [] 0 setdash 2 copy 2 copy moveto vpt 270 360 arc closepath fill
	2 copy moveto
	2 copy vpt 90 180 arc closepath fill
	vpt 0 360 arc closepath} bind def
/C11 {BL [] 0 setdash 2 copy moveto
	2 copy vpt 0 180 arc closepath fill
	2 copy moveto
	2 copy vpt 270 360 arc closepath fill
	vpt 0 360 arc closepath} bind def
/C12 {BL [] 0 setdash 2 copy moveto
	2 copy vpt 180 360 arc closepath fill
	vpt 0 360 arc closepath} bind def
/C13 {BL [] 0 setdash 2 copy moveto
	2 copy vpt 0 90 arc closepath fill
	2 copy moveto
	2 copy vpt 180 360 arc closepath fill
	vpt 0 360 arc closepath} bind def
/C14 {BL [] 0 setdash 2 copy moveto
	2 copy vpt 90 360 arc closepath fill
	vpt 0 360 arc} bind def
/C15 {BL [] 0 setdash 2 copy vpt 0 360 arc closepath fill
	vpt 0 360 arc closepath} bind def
/Rec {newpath 4 2 roll moveto 1 index 0 rlineto 0 exch rlineto
	neg 0 rlineto closepath} bind def
/Square {dup Rec} bind def
/Bsquare {vpt sub exch vpt sub exch vpt2 Square} bind def
/S0 {BL [] 0 setdash 2 copy moveto 0 vpt rlineto BL Bsquare} bind def
/S1 {BL [] 0 setdash 2 copy vpt Square fill Bsquare} bind def
/S2 {BL [] 0 setdash 2 copy exch vpt sub exch vpt Square fill Bsquare} bind def
/S3 {BL [] 0 setdash 2 copy exch vpt sub exch vpt2 vpt Rec fill Bsquare} bind def
/S4 {BL [] 0 setdash 2 copy exch vpt sub exch vpt sub vpt Square fill Bsquare} bind def
/S5 {BL [] 0 setdash 2 copy 2 copy vpt Square fill
	exch vpt sub exch vpt sub vpt Square fill Bsquare} bind def
/S6 {BL [] 0 setdash 2 copy exch vpt sub exch vpt sub vpt vpt2 Rec fill Bsquare} bind def
/S7 {BL [] 0 setdash 2 copy exch vpt sub exch vpt sub vpt vpt2 Rec fill
	2 copy vpt Square fill Bsquare} bind def
/S8 {BL [] 0 setdash 2 copy vpt sub vpt Square fill Bsquare} bind def
/S9 {BL [] 0 setdash 2 copy vpt sub vpt vpt2 Rec fill Bsquare} bind def
/S10 {BL [] 0 setdash 2 copy vpt sub vpt Square fill 2 copy exch vpt sub exch vpt Square fill
	Bsquare} bind def
/S11 {BL [] 0 setdash 2 copy vpt sub vpt Square fill 2 copy exch vpt sub exch vpt2 vpt Rec fill
	Bsquare} bind def
/S12 {BL [] 0 setdash 2 copy exch vpt sub exch vpt sub vpt2 vpt Rec fill Bsquare} bind def
/S13 {BL [] 0 setdash 2 copy exch vpt sub exch vpt sub vpt2 vpt Rec fill
	2 copy vpt Square fill Bsquare} bind def
/S14 {BL [] 0 setdash 2 copy exch vpt sub exch vpt sub vpt2 vpt Rec fill
	2 copy exch vpt sub exch vpt Square fill Bsquare} bind def
/S15 {BL [] 0 setdash 2 copy Bsquare fill Bsquare} bind def
/D0 {gsave translate 45 rotate 0 0 S0 stroke grestore} bind def
/D1 {gsave translate 45 rotate 0 0 S1 stroke grestore} bind def
/D2 {gsave translate 45 rotate 0 0 S2 stroke grestore} bind def
/D3 {gsave translate 45 rotate 0 0 S3 stroke grestore} bind def
/D4 {gsave translate 45 rotate 0 0 S4 stroke grestore} bind def
/D5 {gsave translate 45 rotate 0 0 S5 stroke grestore} bind def
/D6 {gsave translate 45 rotate 0 0 S6 stroke grestore} bind def
/D7 {gsave translate 45 rotate 0 0 S7 stroke grestore} bind def
/D8 {gsave translate 45 rotate 0 0 S8 stroke grestore} bind def
/D9 {gsave translate 45 rotate 0 0 S9 stroke grestore} bind def
/D10 {gsave translate 45 rotate 0 0 S10 stroke grestore} bind def
/D11 {gsave translate 45 rotate 0 0 S11 stroke grestore} bind def
/D12 {gsave translate 45 rotate 0 0 S12 stroke grestore} bind def
/D13 {gsave translate 45 rotate 0 0 S13 stroke grestore} bind def
/D14 {gsave translate 45 rotate 0 0 S14 stroke grestore} bind def
/D15 {gsave translate 45 rotate 0 0 S15 stroke grestore} bind def
/DiaE {stroke [] 0 setdash vpt add M
  hpt neg vpt neg V hpt vpt neg V
  hpt vpt V hpt neg vpt V closepath stroke} def
/BoxE {stroke [] 0 setdash exch hpt sub exch vpt add M
  0 vpt2 neg V hpt2 0 V 0 vpt2 V
  hpt2 neg 0 V closepath stroke} def
/TriUE {stroke [] 0 setdash vpt 1.12 mul add M
  hpt neg vpt -1.62 mul V
  hpt 2 mul 0 V
  hpt neg vpt 1.62 mul V closepath stroke} def
/TriDE {stroke [] 0 setdash vpt 1.12 mul sub M
  hpt neg vpt 1.62 mul V
  hpt 2 mul 0 V
  hpt neg vpt -1.62 mul V closepath stroke} def
/PentE {stroke [] 0 setdash gsave
  translate 0 hpt M 4 {72 rotate 0 hpt L} repeat
  closepath stroke grestore} def
/CircE {stroke [] 0 setdash 
  hpt 0 360 arc stroke} def
/Opaque {gsave closepath 1 setgray fill grestore 0 setgray closepath} def
/DiaW {stroke [] 0 setdash vpt add M
  hpt neg vpt neg V hpt vpt neg V
  hpt vpt V hpt neg vpt V Opaque stroke} def
/BoxW {stroke [] 0 setdash exch hpt sub exch vpt add M
  0 vpt2 neg V hpt2 0 V 0 vpt2 V
  hpt2 neg 0 V Opaque stroke} def
/TriUW {stroke [] 0 setdash vpt 1.12 mul add M
  hpt neg vpt -1.62 mul V
  hpt 2 mul 0 V
  hpt neg vpt 1.62 mul V Opaque stroke} def
/TriDW {stroke [] 0 setdash vpt 1.12 mul sub M
  hpt neg vpt 1.62 mul V
  hpt 2 mul 0 V
  hpt neg vpt -1.62 mul V Opaque stroke} def
/PentW {stroke [] 0 setdash gsave
  translate 0 hpt M 4 {72 rotate 0 hpt L} repeat
  Opaque stroke grestore} def
/CircW {stroke [] 0 setdash 
  hpt 0 360 arc Opaque stroke} def
/BoxFill {gsave Rec 1 setgray fill grestore} def
/Density {
  /Fillden exch def
  currentrgbcolor
  /ColB exch def /ColG exch def /ColR exch def
  /ColR ColR Fillden mul Fillden sub 1 add def
  /ColG ColG Fillden mul Fillden sub 1 add def
  /ColB ColB Fillden mul Fillden sub 1 add def
  ColR ColG ColB setrgbcolor} def
/BoxColFill {gsave Rec PolyFill} def
/PolyFill {gsave Density fill grestore grestore} def
/h {rlineto rlineto rlineto closepath gsave fill grestore stroke} bind def
%
% PostScript Level 1 Pattern Fill routine for rectangles
% Usage: x y w h s a XX PatternFill
%	x,y = lower left corner of box to be filled
%	w,h = width and height of box
%	  a = angle in degrees between lines and x-axis
%	 XX = 0/1 for no/yes cross-hatch
%
/PatternFill {gsave /PFa [ 9 2 roll ] def
  PFa 0 get PFa 2 get 2 div add PFa 1 get PFa 3 get 2 div add translate
  PFa 2 get -2 div PFa 3 get -2 div PFa 2 get PFa 3 get Rec
  TransparentPatterns {} {gsave 1 setgray fill grestore} ifelse
  clip
  currentlinewidth 0.5 mul setlinewidth
  /PFs PFa 2 get dup mul PFa 3 get dup mul add sqrt def
  0 0 M PFa 5 get rotate PFs -2 div dup translate
  0 1 PFs PFa 4 get div 1 add floor cvi
	{PFa 4 get mul 0 M 0 PFs V} for
  0 PFa 6 get ne {
	0 1 PFs PFa 4 get div 1 add floor cvi
	{PFa 4 get mul 0 2 1 roll M PFs 0 V} for
 } if
  stroke grestore} def
%
/languagelevel where
 {pop languagelevel} {1} ifelse
dup 2 lt
	{/InterpretLevel1 true def
	 /InterpretLevel3 false def}
	{/InterpretLevel1 Level1 def
	 2 gt
	    {/InterpretLevel3 Level3 def}
	    {/InterpretLevel3 false def}
	 ifelse }
 ifelse
%
% PostScript level 2 pattern fill definitions
%
/Level2PatternFill {
/Tile8x8 {/PaintType 2 /PatternType 1 /TilingType 1 /BBox [0 0 8 8] /XStep 8 /YStep 8}
	bind def
/KeepColor {currentrgbcolor [/Pattern /DeviceRGB] setcolorspace} bind def
<< Tile8x8
 /PaintProc {0.5 setlinewidth pop 0 0 M 8 8 L 0 8 M 8 0 L stroke} 
>> matrix makepattern
/Pat1 exch def
<< Tile8x8
 /PaintProc {0.5 setlinewidth pop 0 0 M 8 8 L 0 8 M 8 0 L stroke
	0 4 M 4 8 L 8 4 L 4 0 L 0 4 L stroke}
>> matrix makepattern
/Pat2 exch def
<< Tile8x8
 /PaintProc {0.5 setlinewidth pop 0 0 M 0 8 L
	8 8 L 8 0 L 0 0 L fill}
>> matrix makepattern
/Pat3 exch def
<< Tile8x8
 /PaintProc {0.5 setlinewidth pop -4 8 M 8 -4 L
	0 12 M 12 0 L stroke}
>> matrix makepattern
/Pat4 exch def
<< Tile8x8
 /PaintProc {0.5 setlinewidth pop -4 0 M 8 12 L
	0 -4 M 12 8 L stroke}
>> matrix makepattern
/Pat5 exch def
<< Tile8x8
 /PaintProc {0.5 setlinewidth pop -2 8 M 4 -4 L
	0 12 M 8 -4 L 4 12 M 10 0 L stroke}
>> matrix makepattern
/Pat6 exch def
<< Tile8x8
 /PaintProc {0.5 setlinewidth pop -2 0 M 4 12 L
	0 -4 M 8 12 L 4 -4 M 10 8 L stroke}
>> matrix makepattern
/Pat7 exch def
<< Tile8x8
 /PaintProc {0.5 setlinewidth pop 8 -2 M -4 4 L
	12 0 M -4 8 L 12 4 M 0 10 L stroke}
>> matrix makepattern
/Pat8 exch def
<< Tile8x8
 /PaintProc {0.5 setlinewidth pop 0 -2 M 12 4 L
	-4 0 M 12 8 L -4 4 M 8 10 L stroke}
>> matrix makepattern
/Pat9 exch def
/Pattern1 {PatternBgnd KeepColor Pat1 setpattern} bind def
/Pattern2 {PatternBgnd KeepColor Pat2 setpattern} bind def
/Pattern3 {PatternBgnd KeepColor Pat3 setpattern} bind def
/Pattern4 {PatternBgnd KeepColor Landscape {Pat5} {Pat4} ifelse setpattern} bind def
/Pattern5 {PatternBgnd KeepColor Landscape {Pat4} {Pat5} ifelse setpattern} bind def
/Pattern6 {PatternBgnd KeepColor Landscape {Pat9} {Pat6} ifelse setpattern} bind def
/Pattern7 {PatternBgnd KeepColor Landscape {Pat8} {Pat7} ifelse setpattern} bind def
} def
%
%
%End of PostScript Level 2 code
%
/PatternBgnd {
  TransparentPatterns {} {gsave 1 setgray fill grestore} ifelse
} def
%
% Substitute for Level 2 pattern fill codes with
% grayscale if Level 2 support is not selected.
%
/Level1PatternFill {
/Pattern1 {0.250 Density} bind def
/Pattern2 {0.500 Density} bind def
/Pattern3 {0.750 Density} bind def
/Pattern4 {0.125 Density} bind def
/Pattern5 {0.375 Density} bind def
/Pattern6 {0.625 Density} bind def
/Pattern7 {0.875 Density} bind def
} def
%
% Now test for support of Level 2 code
%
Level1 {Level1PatternFill} {Level2PatternFill} ifelse
%
/Symbol-Oblique /Symbol findfont [1 0 .167 1 0 0] makefont
dup length dict begin {1 index /FID eq {pop pop} {def} ifelse} forall
currentdict end definefont pop
%
/Metrics {ExtendTextBox Gswidth} def
/Lwidth {currentpoint stroke M 0 vshift R Metrics} def
/Rwidth {currentpoint stroke M dup stringwidth pop neg vshift R Metrics} def
/Cwidth {currentpoint stroke M dup stringwidth pop -2 div vshift R Metrics} def
/GLwidth {currentpoint stroke M 0 vshift R {ExtendTextBox} forall} def
/GRwidth {currentpoint stroke M dup Gwidth vshift R {ExtendTextBox} forall} def
/GCwidth {currentpoint stroke M dup Gwidth 2 div vshift R {ExtendTextBox} forall} def
/GLwidth2 {0 Gwidth AddGlyphWidth} def
/GRwidth2 {Gwidth -1 mul 0 AddGlyphWidth} def
/GCwidth2 {Gwidth 2 div dup -1 mul AddGlyphWidth} def
/AddGlyphWidth { dup TBx2 gt {userdict /TBx2 3 -1 roll put} {pop} ifelse
                 dup TBx1 lt {userdict /TBx1 3 -1 roll put} {pop} ifelse } def
/MFshow {
   { dup 5 get 3 ge
     { 5 get 3 eq {gsave} {grestore} ifelse }
     {dup dup 0 get findfont exch 1 get scalefont setfont
     [ currentpoint ] exch dup 2 get 0 exch R dup 5 get 2 ne {dup dup 6
     get exch 4 get {textshow} {Metrics pop 0 R} ifelse }if dup 5 get 0 eq
     {dup 3 get {2 get neg 0 exch R pop} {pop aload pop M} ifelse} {dup 5
     get 1 eq {dup 2 get exch dup 3 get exch 6 get Gswidth pop -2 div
     dup 0 R} {dup 6 get Gswidth pop -2 div 0 R 6 get
     textshow 2 index {aload pop M neg 3 -1 roll neg R pop pop} {pop pop pop
     pop aload pop M} ifelse }ifelse }ifelse }
     ifelse }
   forall} def
/Gswidth {dup type /stringtype eq {stringwidth} {pop (n) stringwidth} ifelse} def
/MFwidth {0 exch { dup 5 get 3 ge { 5 get 3 eq { 0 } { pop } ifelse }
 {dup 3 get{dup dup 0 get findfont exch 1 get scalefont setfont
     6 get Gswidth pop add} {pop} ifelse} ifelse} forall} def
/MLshow { currentpoint stroke M
  0 exch R
  Blacktext {gsave 0 setgray MFshow grestore} {MFshow} ifelse } bind def
/MRshow { currentpoint stroke M
  exch dup MFwidth neg 3 -1 roll R
  Blacktext {gsave 0 setgray MFshow grestore} {MFshow} ifelse } bind def
/MCshow { currentpoint stroke M
  exch dup MFwidth -2 div 3 -1 roll R
  Blacktext {gsave 0 setgray MFshow grestore} {MFshow} ifelse } bind def
/XYsave    { [( ) 1 2 true false 3 ()] } bind def
/XYrestore { [( ) 1 2 true false 4 ()] } bind def
Level1 SuppressPDFMark or 
{} {
/SDict 10 dict def
systemdict /pdfmark known not {
  userdict /pdfmark systemdict /cleartomark get put
} if
SDict begin [
  /Title (ARPES_PATH.eps)
  /Subject (gnuplot plot)
  /Creator (gnuplot 5.4 patchlevel 4)
%  /Producer (gnuplot)
%  /Keywords ()
  /CreationDate (Thu Oct 17 15:58:07 2024)
  /DOCINFO pdfmark
end
} ifelse
%
% Support for boxed text - Ethan A Merritt Sep 2016
%
/InitTextBox { userdict /TBy2 3 -1 roll put userdict /TBx2 3 -1 roll put
           userdict /TBy1 3 -1 roll put userdict /TBx1 3 -1 roll put
	   /Boxing true def } def
/ExtendTextBox { dup type /stringtype eq
    { Boxing { gsave dup false charpath pathbbox
      dup TBy2 gt {userdict /TBy2 3 -1 roll put} {pop} ifelse
      dup TBx2 gt {userdict /TBx2 3 -1 roll put} {pop} ifelse
      dup TBy1 lt {userdict /TBy1 3 -1 roll put} {pop} ifelse
      dup TBx1 lt {userdict /TBx1 3 -1 roll put} {pop} ifelse
      grestore } if }
    {} ifelse} def
/PopTextBox { newpath TBx1 TBxmargin sub TBy1 TBymargin sub M
               TBx1 TBxmargin sub TBy2 TBymargin add L
	       TBx2 TBxmargin add TBy2 TBymargin add L
	       TBx2 TBxmargin add TBy1 TBymargin sub L closepath } def
/DrawTextBox { PL PopTextBox stroke /Boxing false def} def
/FillTextBox { gsave PopTextBox fill grestore /Boxing false def} def
0 0 0 0 InitTextBox
/TBxmargin 20 def
/TBymargin 20 def
/Boxing false def
/textshow { ExtendTextBox Gshow } def
%
end
%%EndProlog
%%Page: 1 1
gnudict begin
gsave
doclip
50 50 translate
0.100 0.100 scale
90 rotate
0 -6120 translate
0 setgray
newpath
(Monospace-Bold) findfont 180 scalefont setfont
BackgroundColor 0 lt 3 1 roll 0 lt exch 0 lt or or not {gsave BackgroundColor C clippath fill grestore} if
gsave % colour palette begin
/maxcolors 0 def
/HSV2RGB {  exch dup 0.0 eq {pop exch pop dup dup} % achromatic gray
  { /HSVs exch def /HSVv exch def 6.0 mul dup floor dup 3 1 roll sub
     /HSVf exch def /HSVi exch cvi def /HSVp HSVv 1.0 HSVs sub mul def
	 /HSVq HSVv 1.0 HSVs HSVf mul sub mul def 
	 /HSVt HSVv 1.0 HSVs 1.0 HSVf sub mul sub mul def
	 /HSVi HSVi 6 mod def 0 HSVi eq {HSVv HSVt HSVp}
	 {1 HSVi eq {HSVq HSVv HSVp}{2 HSVi eq {HSVp HSVv HSVt}
	 {3 HSVi eq {HSVp HSVq HSVv}{4 HSVi eq {HSVt HSVp HSVv}
	 {HSVv HSVp HSVq} ifelse} ifelse} ifelse} ifelse} ifelse
  } ifelse} def
/Constrain {
  dup 0 lt {0 exch pop}{dup 1 gt {1 exch pop} if} ifelse} def
/CMY2RGB {  1 exch sub exch 1 exch sub 3 2 roll 1 exch sub 3 1 roll exch } def
/SelectSpace {ColorSpace (HSV) eq {HSV2RGB} {ColorSpace (CMY) eq
  {CMY2RGB} if} ifelse} def
/InterpolatedColor false def
/cF7 {sqrt} bind def	% sqrt(x)
/cF5 {dup dup mul mul} bind def	% x^3
/cF15 {360 mul sin} bind def	% sin(360x)
/pm3dround {maxcolors 0 gt {dup 1 ge
	{pop 1} {maxcolors mul floor maxcolors 1 sub div} ifelse} if} def
/pm3dGamma 1.0 1.5 Gamma mul div def
/ColorSpace (RGB) def
Color InterpolatedColor or { % COLOUR vs. GRAY map
  InterpolatedColor { %% Interpolation vs. RGB-Formula
    /g {stroke pm3dround /grayv exch def interpolate
        SelectSpace setrgbcolor} bind def
  }{
  /g {stroke pm3dround dup cF7 Constrain exch dup cF5 Constrain exch cF15 Constrain 
       SelectSpace setrgbcolor} bind def
  } ifelse
}{
  /g {stroke pm3dround pm3dGamma exp setgray} bind def
} ifelse
1.000 UL
LTb
LCb setrgbcolor
1.000 UP
% Begin plot #1
1.000 UL
[0 100] 0 setdash
LTw
%pm3d_map_begin
.0087 g 895 953 N -283 0 0 231 283 0 h
.0676 g 895 1184 N -283 0 0 232 283 0 h
.1567 g 895 1416 N -283 0 0 231 283 0 h
.1482 g 895 1647 N -283 0 0 231 283 0 h
.0564 g 895 1878 N -283 0 0 232 283 0 h
.0059 g 895 2110 N -283 0 0 231 283 0 h
0 g 895 2341 N -283 0 0 231 283 0 h
0 g 895 2572 N -283 0 0 232 283 0 h
0 g 895 2804 N -283 0 0 231 283 0 h
0 g 895 3035 N -283 0 0 230 283 0 h
0 g 895 3265 N -283 0 0 231 283 0 h
0 g 895 3496 N -283 0 0 232 283 0 h
0 g 895 3728 N -283 0 0 231 283 0 h
0 g 895 3959 N -283 0 0 231 283 0 h
0 g 895 4190 N -283 0 0 232 283 0 h
0 g 895 4422 N -283 0 0 231 283 0 h
0 g 895 4653 N -283 0 0 231 283 0 h
0 g 895 4884 N -283 0 0 232 283 0 h
0 g 895 5116 N -283 0 0 231 283 0 h
0 g 895 5347 N 0 0 283 0 0 0 h
.0066 g 1178 953 N -281 0 0 231 281 0 h
.0586 g 1178 1184 N -281 0 0 232 281 0 h
.149 g 1178 1416 N -281 0 0 231 281 0 h
.1547 g 1178 1647 N -281 0 0 231 281 0 h
.0665 g 1178 1878 N -281 0 0 232 281 0 h
.0088 g 1178 2110 N -281 0 0 231 281 0 h
.0001 g 1178 2341 N -281 0 0 231 281 0 h
0 g 1178 2572 N -281 0 0 232 281 0 h
0 g 1178 2804 N -281 0 0 231 281 0 h
0 g 1178 3035 N -281 0 0 230 281 0 h
0 g 1178 3265 N -281 0 0 231 281 0 h
0 g 1178 3496 N -281 0 0 232 281 0 h
0 g 1178 3728 N -281 0 0 231 281 0 h
0 g 1178 3959 N -281 0 0 231 281 0 h
0 g 1178 4190 N -281 0 0 232 281 0 h
0 g 1178 4422 N -281 0 0 231 281 0 h
0 g 1178 4653 N -281 0 0 231 281 0 h
0 g 1178 4884 N -281 0 0 232 281 0 h
0 g 1178 5116 N -281 0 0 231 281 0 h
0 g 1178 5347 N 0 0 281 0 0 0 h
.0076 g 1459 953 N -281 0 0 231 281 0 h
.1135 g 1459 1184 N -281 0 0 232 281 0 h
.3738 g 1459 1416 N -281 0 0 231 281 0 h
.4734 g 1459 1647 N -281 0 0 231 281 0 h
.2498 g 1459 1878 N -281 0 0 232 281 0 h
.0449 g 1459 2110 N -281 0 0 231 281 0 h
.0009 g 1459 2341 N -281 0 0 231 281 0 h
.0001 g 1459 2572 N -281 0 0 232 281 0 h
0 g 1459 2804 N -281 0 0 231 281 0 h
0 g 1459 3035 N -281 0 0 230 281 0 h
0 g 1459 3265 N -281 0 0 231 281 0 h
0 g 1459 3496 N -281 0 0 232 281 0 h
0 g 1459 3728 N -281 0 0 231 281 0 h
0 g 1459 3959 N -281 0 0 231 281 0 h
0 g 1459 4190 N -281 0 0 232 281 0 h
0 g 1459 4422 N -281 0 0 231 281 0 h
0 g 1459 4653 N -281 0 0 231 281 0 h
0 g 1459 4884 N -281 0 0 232 281 0 h
0 g 1459 5116 N -281 0 0 231 281 0 h
0 g 1459 5347 N 0 0 281 0 0 0 h
.0049 g 1740 953 N -280 0 0 231 280 0 h
.1062 g 1740 1184 N -280 0 0 232 280 0 h
.4227 g 1740 1416 N -280 0 0 231 280 0 h
.6357 g 1740 1647 N -280 0 0 231 280 0 h
.4147 g 1740 1878 N -280 0 0 232 280 0 h
.1066 g 1740 2110 N -280 0 0 231 280 0 h
.0066 g 1740 2341 N -280 0 0 231 280 0 h
.0001 g 1740 2572 N -280 0 0 232 280 0 h
0 g 1740 2804 N -280 0 0 231 280 0 h
0 g 1740 3035 N -280 0 0 230 280 0 h
0 g 1740 3265 N -280 0 0 231 280 0 h
0 g 1740 3496 N -280 0 0 232 280 0 h
0 g 1740 3728 N -280 0 0 231 280 0 h
0 g 1740 3959 N -280 0 0 231 280 0 h
0 g 1740 4190 N -280 0 0 232 280 0 h
0 g 1740 4422 N -280 0 0 231 280 0 h
0 g 1740 4653 N -280 0 0 231 280 0 h
0 g 1740 4884 N -280 0 0 232 280 0 h
0 g 1740 5116 N -280 0 0 231 280 0 h
0 g 1740 5347 N 0 0 280 0 0 0 h
.0004 g 2020 953 N -279 0 0 231 279 0 h
.0268 g 2020 1184 N -279 0 0 232 279 0 h
.1813 g 2020 1416 N -279 0 0 231 279 0 h
.4073 g 2020 1647 N -279 0 0 231 279 0 h
.3932 g 2020 1878 N -279 0 0 232 279 0 h
.162 g 2020 2110 N -279 0 0 231 279 0 h
.0214 g 2020 2341 N -279 0 0 231 279 0 h
.0003 g 2020 2572 N -279 0 0 232 279 0 h
.0001 g 2020 2804 N -279 0 0 231 279 0 h
0 g 2020 3035 N -279 0 0 230 279 0 h
0 g 2020 3265 N -279 0 0 231 279 0 h
0 g 2020 3496 N -279 0 0 232 279 0 h
0 g 2020 3728 N -279 0 0 231 279 0 h
0 g 2020 3959 N -279 0 0 231 279 0 h
0 g 2020 4190 N -279 0 0 232 279 0 h
0 g 2020 4422 N -279 0 0 231 279 0 h
0 g 2020 4653 N -279 0 0 231 279 0 h
0 g 2020 4884 N -279 0 0 232 279 0 h
0 g 2020 5116 N -279 0 0 231 279 0 h
0 g 2020 5347 N 0 0 279 0 0 0 h
.0001 g 2299 953 N -278 0 0 231 278 0 h
.0051 g 2299 1184 N -278 0 0 232 278 0 h
.0736 g 2299 1416 N -278 0 0 231 278 0 h
.2602 g 2299 1647 N -278 0 0 231 278 0 h
.3691 g 2299 1878 N -278 0 0 232 278 0 h
.2301 g 2299 2110 N -278 0 0 231 278 0 h
.0552 g 2299 2341 N -278 0 0 231 278 0 h
.0027 g 2299 2572 N -278 0 0 232 278 0 h
.0001 g 2299 2804 N -278 0 0 231 278 0 h
0 g 2299 3035 N -278 0 0 230 278 0 h
0 g 2299 3265 N -278 0 0 231 278 0 h
0 g 2299 3496 N -278 0 0 232 278 0 h
0 g 2299 3728 N -278 0 0 231 278 0 h
0 g 2299 3959 N -278 0 0 231 278 0 h
0 g 2299 4190 N -278 0 0 232 278 0 h
0 g 2299 4422 N -278 0 0 231 278 0 h
0 g 2299 4653 N -278 0 0 231 278 0 h
0 g 2299 4884 N -278 0 0 232 278 0 h
0 g 2299 5116 N -278 0 0 231 278 0 h
0 g 2299 5347 N 0 0 278 0 0 0 h
.0001 g 2577 953 N -278 0 0 231 278 0 h
.0005 g 2577 1184 N -278 0 0 232 278 0 h
.0257 g 2577 1416 N -278 0 0 231 278 0 h
.1564 g 2577 1647 N -278 0 0 231 278 0 h
.3308 g 2577 1878 N -278 0 0 232 278 0 h
.3023 g 2577 2110 N -278 0 0 231 278 0 h
.1161 g 2577 2341 N -278 0 0 231 278 0 h
.0135 g 2577 2572 N -278 0 0 232 278 0 h
.0002 g 2577 2804 N -278 0 0 231 278 0 h
.0001 g 2577 3035 N -278 0 0 230 278 0 h
0 g 2577 3265 N -278 0 0 231 278 0 h
0 g 2577 3496 N -278 0 0 232 278 0 h
0 g 2577 3728 N -278 0 0 231 278 0 h
0 g 2577 3959 N -278 0 0 231 278 0 h
0 g 2577 4190 N -278 0 0 232 278 0 h
0 g 2577 4422 N -278 0 0 231 278 0 h
0 g 2577 4653 N -278 0 0 231 278 0 h
0 g 2577 4884 N -278 0 0 232 278 0 h
0 g 2577 5116 N -278 0 0 231 278 0 h
0 g 2577 5347 N 0 0 278 0 0 0 h
0 g 2855 953 N -278 0 0 231 278 0 h
.0001 g 2855 1184 N -278 0 0 232 278 0 h
.0072 g 2855 1416 N -278 0 0 231 278 0 h
.0864 g 2855 1647 N -278 0 0 231 278 0 h
.273 g 2855 1878 N -278 0 0 232 278 0 h
.348 g 2855 2110 N -278 0 0 231 278 0 h
.1904 g 2855 2341 N -278 0 0 231 278 0 h
.037 g 2855 2572 N -278 0 0 232 278 0 h
.001 g 2855 2804 N -278 0 0 231 278 0 h
.0001 g 2855 3035 N -278 0 0 230 278 0 h
0 g 2855 3265 N -278 0 0 231 278 0 h
0 g 2855 3496 N -278 0 0 232 278 0 h
0 g 2855 3728 N -278 0 0 231 278 0 h
0 g 2855 3959 N -278 0 0 231 278 0 h
0 g 2855 4190 N -278 0 0 232 278 0 h
0 g 2855 4422 N -278 0 0 231 278 0 h
0 g 2855 4653 N -278 0 0 231 278 0 h
0 g 2855 4884 N -278 0 0 232 278 0 h
0 g 2855 5116 N -278 0 0 231 278 0 h
0 g 2855 5347 N 0 0 278 0 0 0 h
0 g 3133 953 N -277 0 0 231 277 0 h
.0001 g 3133 1184 N -277 0 0 232 277 0 h
.0019 g 3133 1416 N -277 0 0 231 277 0 h
.0494 g 3133 1647 N -277 0 0 231 277 0 h
.2214 g 3133 1878 N -277 0 0 232 277 0 h
.3649 g 3133 2110 N -277 0 0 231 277 0 h
.2565 g 3133 2341 N -277 0 0 231 277 0 h
.0691 g 3133 2572 N -277 0 0 232 277 0 h
.0038 g 3133 2804 N -277 0 0 231 277 0 h
.0001 g 3133 3035 N -277 0 0 230 277 0 h
0 g 3133 3265 N -277 0 0 231 277 0 h
0 g 3133 3496 N -277 0 0 232 277 0 h
0 g 3133 3728 N -277 0 0 231 277 0 h
0 g 3133 3959 N -277 0 0 231 277 0 h
0 g 3133 4190 N -277 0 0 232 277 0 h
0 g 3133 4422 N -277 0 0 231 277 0 h
0 g 3133 4653 N -277 0 0 231 277 0 h
0 g 3133 4884 N -277 0 0 232 277 0 h
0 g 3133 5116 N -277 0 0 231 277 0 h
0 g 3133 5347 N 0 0 277 0 0 0 h
0 g 3410 953 N -276 0 0 231 276 0 h
.0001 g 3410 1184 N -276 0 0 232 276 0 h
.0006 g 3410 1416 N -276 0 0 231 276 0 h
.033 g 3410 1647 N -276 0 0 231 276 0 h
.1906 g 3410 1878 N -276 0 0 232 276 0 h
.3703 g 3410 2110 N -276 0 0 231 276 0 h
.3013 g 3410 2341 N -276 0 0 231 276 0 h
.0961 g 3410 2572 N -276 0 0 232 276 0 h
.0072 g 3410 2804 N -276 0 0 231 276 0 h
.0001 g 3410 3035 N -276 0 0 230 276 0 h
0 g 3410 3265 N -276 0 0 231 276 0 h
0 g 3410 3496 N -276 0 0 232 276 0 h
0 g 3410 3728 N -276 0 0 231 276 0 h
0 g 3410 3959 N -276 0 0 231 276 0 h
0 g 3410 4190 N -276 0 0 232 276 0 h
0 g 3410 4422 N -276 0 0 231 276 0 h
0 g 3410 4653 N -276 0 0 231 276 0 h
0 g 3410 4884 N -276 0 0 232 276 0 h
0 g 3410 5116 N -276 0 0 231 276 0 h
0 g 3410 5347 N 0 0 276 0 0 0 h
0 g 3686 953 N -277 0 0 231 277 0 h
.0001 g 3686 1184 N -277 0 0 232 277 0 h
.0006 g 3686 1416 N -277 0 0 231 277 0 h
.033 g 3686 1647 N -277 0 0 231 277 0 h
.1906 g 3686 1878 N -277 0 0 232 277 0 h
.3703 g 3686 2110 N -277 0 0 231 277 0 h
.3013 g 3686 2341 N -277 0 0 231 277 0 h
.0961 g 3686 2572 N -277 0 0 232 277 0 h
.0072 g 3686 2804 N -277 0 0 231 277 0 h
.0001 g 3686 3035 N -277 0 0 230 277 0 h
0 g 3686 3265 N -277 0 0 231 277 0 h
0 g 3686 3496 N -277 0 0 232 277 0 h
0 g 3686 3728 N -277 0 0 231 277 0 h
0 g 3686 3959 N -277 0 0 231 277 0 h
0 g 3686 4190 N -277 0 0 232 277 0 h
0 g 3686 4422 N -277 0 0 231 277 0 h
0 g 3686 4653 N -277 0 0 231 277 0 h
0 g 3686 4884 N -277 0 0 232 277 0 h
0 g 3686 5116 N -277 0 0 231 277 0 h
0 g 3686 5347 N 0 0 277 0 0 0 h
0 g 3963 953 N -278 0 0 231 278 0 h
.0001 g 3963 1184 N -278 0 0 232 278 0 h
.0019 g 3963 1416 N -278 0 0 231 278 0 h
.0494 g 3963 1647 N -278 0 0 231 278 0 h
.2214 g 3963 1878 N -278 0 0 232 278 0 h
.3649 g 3963 2110 N -278 0 0 231 278 0 h
.2565 g 3963 2341 N -278 0 0 231 278 0 h
.0691 g 3963 2572 N -278 0 0 232 278 0 h
.0038 g 3963 2804 N -278 0 0 231 278 0 h
.0001 g 3963 3035 N -278 0 0 230 278 0 h
0 g 3963 3265 N -278 0 0 231 278 0 h
0 g 3963 3496 N -278 0 0 232 278 0 h
0 g 3963 3728 N -278 0 0 231 278 0 h
0 g 3963 3959 N -278 0 0 231 278 0 h
0 g 3963 4190 N -278 0 0 232 278 0 h
0 g 3963 4422 N -278 0 0 231 278 0 h
0 g 3963 4653 N -278 0 0 231 278 0 h
0 g 3963 4884 N -278 0 0 232 278 0 h
0 g 3963 5116 N -278 0 0 231 278 0 h
0 g 3963 5347 N 0 0 278 0 0 0 h
0 g 4241 953 N -277 0 0 231 277 0 h
.0001 g 4241 1184 N -277 0 0 232 277 0 h
.0072 g 4241 1416 N -277 0 0 231 277 0 h
.0864 g 4241 1647 N -277 0 0 231 277 0 h
.273 g 4241 1878 N -277 0 0 232 277 0 h
.348 g 4241 2110 N -277 0 0 231 277 0 h
.1904 g 4241 2341 N -277 0 0 231 277 0 h
.037 g 4241 2572 N -277 0 0 232 277 0 h
.001 g 4241 2804 N -277 0 0 231 277 0 h
.0001 g 4241 3035 N -277 0 0 230 277 0 h
0 g 4241 3265 N -277 0 0 231 277 0 h
0 g 4241 3496 N -277 0 0 232 277 0 h
0 g 4241 3728 N -277 0 0 231 277 0 h
0 g 4241 3959 N -277 0 0 231 277 0 h
0 g 4241 4190 N -277 0 0 232 277 0 h
0 g 4241 4422 N -277 0 0 231 277 0 h
0 g 4241 4653 N -277 0 0 231 277 0 h
0 g 4241 4884 N -277 0 0 232 277 0 h
0 g 4241 5116 N -277 0 0 231 277 0 h
0 g 4241 5347 N 0 0 277 0 0 0 h
.0001 g 4518 953 N -278 0 0 231 278 0 h
.0005 g 4518 1184 N -278 0 0 232 278 0 h
.0257 g 4518 1416 N -278 0 0 231 278 0 h
.1564 g 4518 1647 N -278 0 0 231 278 0 h
.3308 g 4518 1878 N -278 0 0 232 278 0 h
.3023 g 4518 2110 N -278 0 0 231 278 0 h
.1161 g 4518 2341 N -278 0 0 231 278 0 h
.0135 g 4518 2572 N -278 0 0 232 278 0 h
.0002 g 4518 2804 N -278 0 0 231 278 0 h
.0001 g 4518 3035 N -278 0 0 230 278 0 h
0 g 4518 3265 N -278 0 0 231 278 0 h
0 g 4518 3496 N -278 0 0 232 278 0 h
0 g 4518 3728 N -278 0 0 231 278 0 h
0 g 4518 3959 N -278 0 0 231 278 0 h
0 g 4518 4190 N -278 0 0 232 278 0 h
0 g 4518 4422 N -278 0 0 231 278 0 h
0 g 4518 4653 N -278 0 0 231 278 0 h
0 g 4518 4884 N -278 0 0 232 278 0 h
0 g 4518 5116 N -278 0 0 231 278 0 h
0 g 4518 5347 N 0 0 278 0 0 0 h
.0001 g 4796 953 N -279 0 0 231 279 0 h
.0051 g 4796 1184 N -279 0 0 232 279 0 h
.0736 g 4796 1416 N -279 0 0 231 279 0 h
.2602 g 4796 1647 N -279 0 0 231 279 0 h
.3691 g 4796 1878 N -279 0 0 232 279 0 h
.2301 g 4796 2110 N -279 0 0 231 279 0 h
.0552 g 4796 2341 N -279 0 0 231 279 0 h
.0027 g 4796 2572 N -279 0 0 232 279 0 h
.0001 g 4796 2804 N -279 0 0 231 279 0 h
0 g 4796 3035 N -279 0 0 230 279 0 h
0 g 4796 3265 N -279 0 0 231 279 0 h
0 g 4796 3496 N -279 0 0 232 279 0 h
0 g 4796 3728 N -279 0 0 231 279 0 h
0 g 4796 3959 N -279 0 0 231 279 0 h
0 g 4796 4190 N -279 0 0 232 279 0 h
0 g 4796 4422 N -279 0 0 231 279 0 h
0 g 4796 4653 N -279 0 0 231 279 0 h
0 g 4796 4884 N -279 0 0 232 279 0 h
0 g 4796 5116 N -279 0 0 231 279 0 h
0 g 4796 5347 N 0 0 279 0 0 0 h
.0004 g 5075 953 N -279 0 0 231 279 0 h
.0268 g 5075 1184 N -279 0 0 232 279 0 h
.1813 g 5075 1416 N -279 0 0 231 279 0 h
.4073 g 5075 1647 N -279 0 0 231 279 0 h
.3932 g 5075 1878 N -279 0 0 232 279 0 h
.162 g 5075 2110 N -279 0 0 231 279 0 h
.0214 g 5075 2341 N -279 0 0 231 279 0 h
.0003 g 5075 2572 N -279 0 0 232 279 0 h
.0001 g 5075 2804 N -279 0 0 231 279 0 h
0 g 5075 3035 N -279 0 0 230 279 0 h
0 g 5075 3265 N -279 0 0 231 279 0 h
0 g 5075 3496 N -279 0 0 232 279 0 h
0 g 5075 3728 N -279 0 0 231 279 0 h
0 g 5075 3959 N -279 0 0 231 279 0 h
0 g 5075 4190 N -279 0 0 232 279 0 h
0 g 5075 4422 N -279 0 0 231 279 0 h
0 g 5075 4653 N -279 0 0 231 279 0 h
0 g 5075 4884 N -279 0 0 232 279 0 h
0 g 5075 5116 N -279 0 0 231 279 0 h
0 g 5075 5347 N 0 0 279 0 0 0 h
.0049 g 5354 953 N -280 0 0 231 280 0 h
.1062 g 5354 1184 N -280 0 0 232 280 0 h
.4227 g 5354 1416 N -280 0 0 231 280 0 h
.6357 g 5354 1647 N -280 0 0 231 280 0 h
.4147 g 5354 1878 N -280 0 0 232 280 0 h
.1066 g 5354 2110 N -280 0 0 231 280 0 h
.0066 g 5354 2341 N -280 0 0 231 280 0 h
.0001 g 5354 2572 N -280 0 0 232 280 0 h
0 g 5354 2804 N -280 0 0 231 280 0 h
0 g 5354 3035 N -280 0 0 230 280 0 h
0 g 5354 3265 N -280 0 0 231 280 0 h
0 g 5354 3496 N -280 0 0 232 280 0 h
0 g 5354 3728 N -280 0 0 231 280 0 h
0 g 5354 3959 N -280 0 0 231 280 0 h
0 g 5354 4190 N -280 0 0 232 280 0 h
0 g 5354 4422 N -280 0 0 231 280 0 h
0 g 5354 4653 N -280 0 0 231 280 0 h
0 g 5354 4884 N -280 0 0 232 280 0 h
0 g 5354 5116 N -280 0 0 231 280 0 h
0 g 5354 5347 N 0 0 280 0 0 0 h
.0076 g 5634 953 N -280 0 0 231 280 0 h
.1135 g 5634 1184 N -280 0 0 232 280 0 h
.3738 g 5634 1416 N -280 0 0 231 280 0 h
.4734 g 5634 1647 N -280 0 0 231 280 0 h
.2498 g 5634 1878 N -280 0 0 232 280 0 h
.0449 g 5634 2110 N -280 0 0 231 280 0 h
.0009 g 5634 2341 N -280 0 0 231 280 0 h
.0001 g 5634 2572 N -280 0 0 232 280 0 h
0 g 5634 2804 N -280 0 0 231 280 0 h
0 g 5634 3035 N -280 0 0 230 280 0 h
0 g 5634 3265 N -280 0 0 231 280 0 h
0 g 5634 3496 N -280 0 0 232 280 0 h
0 g 5634 3728 N -280 0 0 231 280 0 h
0 g 5634 3959 N -280 0 0 231 280 0 h
0 g 5634 4190 N -280 0 0 232 280 0 h
0 g 5634 4422 N -280 0 0 231 280 0 h
0 g 5634 4653 N -280 0 0 231 280 0 h
0 g 5634 4884 N -280 0 0 232 280 0 h
0 g 5634 5116 N -280 0 0 231 280 0 h
0 g 5634 5347 N 0 0 280 0 0 0 h
.0066 g 5914 953 N -282 0 0 231 282 0 h
.0586 g 5914 1184 N -282 0 0 232 282 0 h
.149 g 5914 1416 N -282 0 0 231 282 0 h
.1547 g 5914 1647 N -282 0 0 231 282 0 h
.0665 g 5914 1878 N -282 0 0 232 282 0 h
.0088 g 5914 2110 N -282 0 0 231 282 0 h
.0001 g 5914 2341 N -282 0 0 231 282 0 h
0 g 5914 2572 N -282 0 0 232 282 0 h
0 g 5914 2804 N -282 0 0 231 282 0 h
0 g 5914 3035 N -282 0 0 230 282 0 h
0 g 5914 3265 N -282 0 0 231 282 0 h
0 g 5914 3496 N -282 0 0 232 282 0 h
0 g 5914 3728 N -282 0 0 231 282 0 h
0 g 5914 3959 N -282 0 0 231 282 0 h
0 g 5914 4190 N -282 0 0 232 282 0 h
0 g 5914 4422 N -282 0 0 231 282 0 h
0 g 5914 4653 N -282 0 0 231 282 0 h
0 g 5914 4884 N -282 0 0 232 282 0 h
0 g 5914 5116 N -282 0 0 231 282 0 h
0 g 5914 5347 N 0 0 282 0 0 0 h
.0087 g 6196 953 N -91 0 0 231 91 0 h
.0676 g 6196 1184 N -91 0 0 232 91 0 h
.1567 g 6196 1416 N -91 0 0 231 91 0 h
.1482 g 6196 1647 N -91 0 0 231 91 0 h
.0564 g 6196 1878 N -91 0 0 232 91 0 h
.0059 g 6196 2110 N -91 0 0 231 91 0 h
0 g 6196 2341 N -91 0 0 231 91 0 h
0 g 6196 2572 N -91 0 0 232 91 0 h
0 g 6196 2804 N -91 0 0 231 91 0 h
0 g 6196 3035 N -91 0 0 230 91 0 h
0 g 6196 3265 N -91 0 0 231 91 0 h
0 g 6196 3496 N -91 0 0 232 91 0 h
0 g 6196 3728 N -91 0 0 231 91 0 h
0 g 6196 3959 N -91 0 0 231 91 0 h
0 g 6196 4190 N -91 0 0 232 91 0 h
0 g 6196 4422 N -91 0 0 231 91 0 h
0 g 6196 4653 N -91 0 0 231 91 0 h
0 g 6196 4884 N -91 0 0 232 91 0 h
0 g 6196 5116 N -91 0 0 231 91 0 h
0 g 6196 5347 N 0 0 91 0 0 0 h
%pm3d_map_end
1.000 UL
[0 100] 0 setdash
LTw
% End plot #1
1.000 UL
LTb
LCb setrgbcolor
895 5347 N
895 953 L
5392 0 V
0 4394 V
-5392 0 V
Z stroke
1.000 UL
LTb
LCb setrgbcolor
894 952 M
0 81 V
stroke
LTb
LCb setrgbcolor
894 5347 M
0 -81 V
stroke
895 722 M
[ [(Monospace-Bold) 180.0 0.0 true true 0 ( 0)]
] -60.0 MCshow
/Monospace-Bold findfont 180 scalefont setfont
/vshift -60 def
1.000 UL
LTb
LCb setrgbcolor
1.000 UL
LTb
LCb setrgbcolor
1613 952 M
0 81 V
stroke
LTb
LCb setrgbcolor
1613 5347 M
0 -81 V
stroke
1614 722 M
[ [(Monospace-Bold) 180.0 0.0 true true 0 ( 0.1)]
] -60.0 MCshow
/Monospace-Bold findfont 180 scalefont setfont
1.000 UL
LTb
LCb setrgbcolor
1.000 UL
LTb
LCb setrgbcolor
2332 952 M
0 81 V
stroke
LTb
LCb setrgbcolor
2332 5347 M
0 -81 V
stroke
2333 722 M
[ [(Monospace-Bold) 180.0 0.0 true true 0 ( 0.2)]
] -60.0 MCshow
/Monospace-Bold findfont 180 scalefont setfont
1.000 UL
LTb
LCb setrgbcolor
1.000 UL
LTb
LCb setrgbcolor
3051 952 M
0 81 V
stroke
LTb
LCb setrgbcolor
3051 5347 M
0 -81 V
stroke
3052 722 M
[ [(Monospace-Bold) 180.0 0.0 true true 0 ( 0.3)]
] -60.0 MCshow
/Monospace-Bold findfont 180 scalefont setfont
1.000 UL
LTb
LCb setrgbcolor
1.000 UL
LTb
LCb setrgbcolor
3770 952 M
0 81 V
stroke
LTb
LCb setrgbcolor
3770 5347 M
0 -81 V
stroke
3770 722 M
[ [(Monospace-Bold) 180.0 0.0 true true 0 ( 0.4)]
] -60.0 MCshow
/Monospace-Bold findfont 180 scalefont setfont
1.000 UL
LTb
LCb setrgbcolor
1.000 UL
LTb
LCb setrgbcolor
4489 952 M
0 81 V
stroke
LTb
LCb setrgbcolor
4489 5347 M
0 -81 V
stroke
4489 722 M
[ [(Monospace-Bold) 180.0 0.0 true true 0 ( 0.5)]
] -60.0 MCshow
/Monospace-Bold findfont 180 scalefont setfont
1.000 UL
LTb
LCb setrgbcolor
1.000 UL
LTb
LCb setrgbcolor
5209 952 M
0 81 V
stroke
LTb
LCb setrgbcolor
5209 5347 M
0 -81 V
stroke
5209 722 M
[ [(Monospace-Bold) 180.0 0.0 true true 0 ( 0.6)]
] -60.0 MCshow
/Monospace-Bold findfont 180 scalefont setfont
1.000 UL
LTb
LCb setrgbcolor
1.000 UL
LTb
LCb setrgbcolor
5928 952 M
0 81 V
stroke
LTb
LCb setrgbcolor
5928 5347 M
0 -81 V
stroke
5928 722 M
[ [(Monospace-Bold) 180.0 0.0 true true 0 ( 0.7)]
] -60.0 MCshow
/Monospace-Bold findfont 180 scalefont setfont
1.000 UL
LTb
LCb setrgbcolor
LCb setrgbcolor
3591 452 M
[ [(Monospace-Bold) 180.0 0.0 true true 0 (k \(1/Bohr\))]
] -60.0 MCshow
/Monospace-Bold findfont 180 scalefont setfont
1.000 UL
LTb
LCb setrgbcolor
894 1183 M
99 0 V
stroke
LTb
LCb setrgbcolor
6287 1183 M
-99 0 V
stroke
724 1184 M
[ [(Monospace-Bold) 180.0 0.0 true true 0 ( 1.72)]
] -60.0 MRshow
/Monospace-Bold findfont 180 scalefont setfont
1.000 UL
LTb
LCb setrgbcolor
1.000 UL
LTb
LCb setrgbcolor
894 1646 M
99 0 V
stroke
LTb
LCb setrgbcolor
6287 1646 M
-99 0 V
stroke
724 1647 M
[ [(Monospace-Bold) 180.0 0.0 true true 0 ( 1.74)]
] -60.0 MRshow
/Monospace-Bold findfont 180 scalefont setfont
1.000 UL
LTb
LCb setrgbcolor
1.000 UL
LTb
LCb setrgbcolor
894 2109 M
99 0 V
stroke
LTb
LCb setrgbcolor
6287 2109 M
-99 0 V
stroke
724 2110 M
[ [(Monospace-Bold) 180.0 0.0 true true 0 ( 1.76)]
] -60.0 MRshow
/Monospace-Bold findfont 180 scalefont setfont
1.000 UL
LTb
LCb setrgbcolor
1.000 UL
LTb
LCb setrgbcolor
894 2571 M
99 0 V
stroke
LTb
LCb setrgbcolor
6287 2571 M
-99 0 V
stroke
724 2572 M
[ [(Monospace-Bold) 180.0 0.0 true true 0 ( 1.78)]
] -60.0 MRshow
/Monospace-Bold findfont 180 scalefont setfont
1.000 UL
LTb
LCb setrgbcolor
1.000 UL
LTb
LCb setrgbcolor
894 3034 M
99 0 V
stroke
LTb
LCb setrgbcolor
6287 3034 M
-99 0 V
stroke
724 3035 M
[ [(Monospace-Bold) 180.0 0.0 true true 0 ( 1.8)]
] -60.0 MRshow
/Monospace-Bold findfont 180 scalefont setfont
1.000 UL
LTb
LCb setrgbcolor
1.000 UL
LTb
LCb setrgbcolor
894 3496 M
99 0 V
stroke
LTb
LCb setrgbcolor
6287 3496 M
-99 0 V
stroke
724 3496 M
[ [(Monospace-Bold) 180.0 0.0 true true 0 ( 1.82)]
] -60.0 MRshow
/Monospace-Bold findfont 180 scalefont setfont
1.000 UL
LTb
LCb setrgbcolor
1.000 UL
LTb
LCb setrgbcolor
894 3959 M
99 0 V
stroke
LTb
LCb setrgbcolor
6287 3959 M
-99 0 V
stroke
724 3959 M
[ [(Monospace-Bold) 180.0 0.0 true true 0 ( 1.84)]
] -60.0 MRshow
/Monospace-Bold findfont 180 scalefont setfont
1.000 UL
LTb
LCb setrgbcolor
1.000 UL
LTb
LCb setrgbcolor
894 4422 M
99 0 V
stroke
LTb
LCb setrgbcolor
6287 4422 M
-99 0 V
stroke
724 4422 M
[ [(Monospace-Bold) 180.0 0.0 true true 0 ( 1.86)]
] -60.0 MRshow
/Monospace-Bold findfont 180 scalefont setfont
1.000 UL
LTb
LCb setrgbcolor
1.000 UL
LTb
LCb setrgbcolor
894 4884 M
99 0 V
stroke
LTb
LCb setrgbcolor
6287 4884 M
-99 0 V
stroke
724 4884 M
[ [(Monospace-Bold) 180.0 0.0 true true 0 ( 1.88)]
] -60.0 MRshow
/Monospace-Bold findfont 180 scalefont setfont
1.000 UL
LTb
LCb setrgbcolor
1.000 UL
LTb
LCb setrgbcolor
894 5347 M
99 0 V
stroke
LTb
LCb setrgbcolor
6287 5347 M
-99 0 V
stroke
724 5347 M
[ [(Monospace-Bold) 180.0 0.0 true true 0 ( 1.9)]
] -60.0 MRshow
/Monospace-Bold findfont 180 scalefont setfont
1.000 UL
LTb
LCb setrgbcolor
LCb setrgbcolor
130 3150 M
currentpoint gsave translate -270 rotate 0 0 moveto
[ [(Monospace-Bold) 180.0 0.0 true true 0 (kinetic energy \(eV\))]
] -60.0 MCshow
grestore
/Monospace-Bold findfont 180 scalefont setfont
stroke gsave	%% draw gray scale smooth box
maxcolors 0 gt {/imax maxcolors def} {/imax 1024 def} ifelse
6530 953 translate 269 4394 scale 0 setlinewidth
/ystep 1 imax div def /y0 0 def /ii 0 def
{ y0 g 0 y0 N 1 0 V 0 ystep V -1 0 f
/y0 y0 ystep add def /ii ii 1 add def
ii imax ge {exit} if } loop
grestore 0 setgray
1.000 UL
LTb
LCb setrgbcolor
6530 953 N
269 0 V
0 4394 V
-269 0 V
0 -4394 V
Z stroke
1.000 UL
LTb
LCb setrgbcolor
1.000 UL
LTb
LCb setrgbcolor
6799 953 M
-63 0 V
stroke
6907 953 M
[ [(Monospace-Bold) 180.0 0.0 true true 0 ( 0)]
] -60.0 MLshow
/Monospace-Bold findfont 180 scalefont setfont
1.000 UL
LTb
LCb setrgbcolor
6530 953 M
63 0 V
206 878 R
-63 0 V
stroke
6907 1831 M
[ [(Monospace-Bold) 180.0 0.0 true true 0 ( 5x10)]
[(Monospace-Bold) 144.0 90.0 true true 0 (-7)]
] -78.0 MLshow
/Monospace-Bold findfont 180 scalefont setfont
1.000 UL
LTb
LCb setrgbcolor
6530 1831 M
63 0 V
206 879 R
-63 0 V
stroke
6907 2710 M
[ [(Monospace-Bold) 180.0 0.0 true true 0 ( 1x10)]
[(Monospace-Bold) 144.0 90.0 true true 0 (-6)]
] -78.0 MLshow
/Monospace-Bold findfont 180 scalefont setfont
1.000 UL
LTb
LCb setrgbcolor
6530 2710 M
63 0 V
206 879 R
-63 0 V
stroke
6907 3589 M
[ [(Monospace-Bold) 180.0 0.0 true true 0 ( 1.5x10)]
[(Monospace-Bold) 144.0 90.0 true true 0 (-6)]
] -78.0 MLshow
/Monospace-Bold findfont 180 scalefont setfont
1.000 UL
LTb
LCb setrgbcolor
6530 3589 M
63 0 V
206 879 R
-63 0 V
stroke
6907 4468 M
[ [(Monospace-Bold) 180.0 0.0 true true 0 ( 2x10)]
[(Monospace-Bold) 144.0 90.0 true true 0 (-6)]
] -78.0 MLshow
/Monospace-Bold findfont 180 scalefont setfont
1.000 UL
LTb
LCb setrgbcolor
6530 4468 M
63 0 V
206 879 R
-63 0 V
stroke
6907 5347 M
[ [(Monospace-Bold) 180.0 0.0 true true 0 ( 2.5x10)]
[(Monospace-Bold) 144.0 90.0 true true 0 (-6)]
] -78.0 MLshow
/Monospace-Bold findfont 180 scalefont setfont
1.000 UL
LTb
LCb setrgbcolor
6530 5347 M
63 0 V
1.000 UP
stroke
grestore % colour palette end
stroke
grestore
end
showpage
%%Trailer
%%DocumentFonts: Monospace-Bold
%%Pages: 1
