# -*- coding: utf-8 mode: shell-script -*-

CalculationMode = gs

FromScratch = yes

%Coordinates
 'O'  |  0.000000  | -0.553586  |  0.000000
 'H'  |  1.429937  |  0.553586  |  0.000000
 'H'  | -1.429937  |  0.553586  |  0.000000
%

Spacing = 0.65
Radius = 7.0

ConvRelDens = 8.0e-8

FilterPotentials = filter_none

MixField = density

PoissonSolver = isf
