*********************** SCF CYCLE ITER #   21 ************************
 etot  = -2.62241209E+02 abs_ev   =  7.85E-05 rel_ev   =  1.34E-06
 ediff =        4.50E-06 abs_dens =  1.73E-06 rel_dens =  3.45E-07
Matrix vector products:     23
Converged eigenvectors:      0

#  State  Eigenvalue [eV]  Occupation    Error
      1      -18.282871    2.000000   ( 4.6E-07)
      2       -7.302321    1.000000   ( 1.4E-07)
      3       -7.302321    1.000000   ( 1.4E-07)
      4       -7.302321    1.000000   ( 1.4E-07)

Density of states:

---------------------------------------------------------------------%
---------------------------------------------------------------------%
---------------------------------------------------------------------%
---------------------------------------------------------------------%
---------------------------------------------------------------------%
---------------------------------------------------------------------%
---------------------------------------------------------------------%
%--------------------------------------------------------------------%
%--------------------------------------------------------------------%
%--------------------------------------------------------------------%
                                                                     ^


Elapsed time for SCF step    21:          0.03
**********************************************************************
