CalculationMode = test
TestMode = derivatives
Debug = info

PeriodicDimensions = 3

a = 6
b = 6
c = 8
aprime = sqrt(a^2/3+c^2/9)
alpha = acos((2*c^2-3*a^2)/(2*(c^2+3*a^2)))
beta = alpha
gamma = alpha

%LatticeParameters
  aprime | aprime | aprime
  alpha | beta | gamma
%

%ReducedCoordinates
 "H" |   0.0    | 0.0     | 0.0
%

%Spacing
  aprime/20 | aprime/20 | aprime/20
%


TestRepetitions = 1

TestMaxBlockSize = 2
