CalculationMode = test

TestMode = orthogonalization

%Coordinates
"Na" | 0.0 | 0.0 |  0.0
%

BoxShape = sphere
Radius  = 14.0
Spacing = 0.35

ExtraStates = 8

StatesOrthogonalization = mgs

TestType = real
