CalculationMode = test

%Coordinates
"Na" | 0.0 | 0.0 |  0.0
%

BoxShape = sphere
Radius  = 5.0*angstrom
Spacing = 0.3*angstrom

PoissonSolver = multigrid

PoissonSolverMaxMultipole = 8

CurvMethod = curv_gygi
ExperimentalFeatures = yes
