CalculationMode = test

%Coordinates
"Na" | 0.0 | 0.0 |  0.0
%

BoxShape = sphere
Radius  = 8.0*angstrom
Spacing = 0.3*angstrom

PoissonSolver = psolver
ExperimentalFeatures = yes

PoissonSolverPSolverParallelData = yes
