CalculationMode = gs
ExperimentalFeatures = yes

%Coordinates
 "H" | 0.0 | 0.0 | 0.0
%

Spacing = 0.45
Radius = 6

FromScratch = yes

ExtraStates = 1
SpinComponents = polarized
ConvEigenError = yes

DFTULevel = dft_u_acbn0
UseAllAtomicOrbitals = yes
SkipSOrbitals = no
AOThreshold = 0.05

%Output
  occ_matrices
  effectiveU
%
DFTUPoissonSolver = dft_u_poisson_direct

# Fix the Poisson solver to avoid GPU-CPU discrepancy
PoissonSolver = isf

