CalculationMode = td

UnitsOutput = ev_angstrom

%Coordinates
'Na'  | -1.4646408*angstrom | 0 | 0 | yes
'Na'  |  1.4646408*angstrom | 0 | 0 | yes
%

ExcessCharge = 1

Spacing = 0.32*angstrom
Radius = 5.0*angstrom

TDMaxSteps = 200

TDPropagator = aetrs
TDTimeStep = 0.212892

TDDeltaStrength = 0.01/angstrom

%TDPolarization
 1/sqrt(2) | -1/sqrt(2) | 0
 1/sqrt(2) |  1/sqrt(2) | 0
 1/sqrt(2) |  0         | 1/sqrt(2)
%

TDPolarizationDirection = 1
TDPolarizationEquivAxes = 3

FilterPotentials = filter_none

StatesPack = no

PoissonSolver = isf
