********************* Time-Dependent Simulation **********************
  Iter           Time        Energy   SC Steps    Elapsed Time
**********************************************************************

      1       0.002000   -218.870493         1         0.016
      2       0.004000   -218.870493         1         0.017
      3       0.006000   -218.870493         1         0.015
