{
  "version": 4,
  "include": [
    "CMakePresets-components.json"
  ],
  "configurePresets": [
    {
      "name": "default",
      "displayName": "Default",
      "binaryDir": "cmake-build-release",
      "generator": "Ninja",
      "cacheVariables": {
        "CMAKE_BUILD_TYPE": {
          "type": "STRING",
          "value": "Release"
        },
        "CMAKE_MESSAGE_CONTEXT_SHOW": {
          "type": "BOOL",
          "value": true
        },
        "CMAKE_COLOR_DIAGNOSTICS": {
          "type": "BOOL",
          "value": true
        }
      }
    },
    {
      "name": "min",
      "displayName": "Minimum third-party library",
      "binaryDir": "cmake-build-min",
      "inherits": [
        "default",
        "_min"
      ]
    },
    {
      "name": "mac-brew-gcc13",
      "displayName": "MacOS with homebrew @ gcc-13",
      "binaryDir": "cmake-build-mac",
      "inherits": [
        "default",
        "_min"
      ],
      "cacheVariables": {
        "CMAKE_C_COMPILER": "gcc-13",
        "CMAKE_CXX_COMPILER": "g++-13",
        "CMAKE_Fortran_COMPILER": "gfortran-13",
        "BLA_VENDOR": "OpenBLAS",
        "CPP_EXECUTABLE": {
           "type": "FILEPATH",
           "value": "cpp-13"
        }
      },
      "environment": {
        "CMAKE_PREFIX_PATH": "/opt/homebrew/opt/openblas:$penv{CMAKE_PREFIX_PATH}"
      }
    }
  ],
  "buildPresets": [
    {
      "name": "default",
      "displayName": "Default",
      "configurePreset": "default"
    },
    {
      "name": "min",
      "displayName": "Minimum third-party library",
      "configurePreset": "min",
      "inherits": [
        "default"
      ]
    },
    {
      "name": "mac-brew-gcc13",
      "displayName": "MacOS with homebrew @ gcc-13",
      "configurePreset": "mac-brew-gcc13",
      "inherits": [
        "default"
      ]
    }
  ],
  "testPresets": [
    {
      "name": "default",
      "displayName": "Default",
      "configurePreset": "default",
      "filter": {
        "include": {
          "label": "short-run"
        }
      },
      "output": {
        "outputOnFailure": true
      }
    },
    {
      "name": "min",
      "displayName": "Minimum third-party library",
      "configurePreset": "min",
      "inherits": [
        "default"
      ]
    },
    {
      "name": "mac-brew-gcc13",
      "displayName": "MacOS with homebrew @ gcc-13",
      "configurePreset": "mac-brew-gcc13",
      "inherits": [
        "default"
      ]
    }
  ]
}
