# nspin         1
# kick mode    0
# kick strength    0.005291772086
# dim           3
# pol(1)           1.000000000000    0.000000000000    0.000000000000
# pol(2)           0.000000000000    1.000000000000    0.000000000000
# pol(3)           0.000000000000    0.000000000000    1.000000000000
# direction    3
# Equiv. axes  0
# wprime           0.000000000000    0.000000000000    1.000000000000
# kick time        0.000000000000
#       Energy         (1/3)*Tr[sigma]    Anisotropy[sigma]      sigma(1,1,1)        sigma(1,2,1)        sigma(1,3,1)        sigma(2,1,1)        sigma(2,2,1)        sigma(2,3,1)        sigma(3,1,1)        sigma(3,2,1)        sigma(3,3,1)    
#        [eV]               [A^2]               [A^2]               [A^2]               [A^2]               [A^2]               [A^2]               [A^2]               [A^2]               [A^2]               [A^2]               [A^2]        
      0.00000000E+00      0.00000000E+00      0.00000000E+00      0.00000000E+00      0.00000000E+00      0.00000000E+00      0.00000000E+00      0.00000000E+00      0.00000000E+00      0.00000000E+00      0.00000000E+00      0.00000000E+00
      0.10000000E-01     -0.21660462E-08      0.87528206E-16     -0.21660462E-08     -0.57683571E-17     -0.48798743E-17      0.82653830E-16     -0.21660461E-08      0.88111455E-16     -0.31542585E-17      0.37045459E-17     -0.21660462E-08
      0.20000000E-01     -0.86528661E-08      0.36434950E-15     -0.86528662E-08     -0.23044513E-16     -0.19498801E-16      0.33022143E-15     -0.86528658E-08      0.35202648E-15     -0.12598125E-16      0.14793293E-16     -0.86528662E-08
      0.30000000E-01     -0.19426573E-07      0.94437702E-15     -0.19426573E-07     -0.51741896E-16     -0.43794807E-16      0.74152344E-15     -0.19426572E-07      0.79048949E-15     -0.28274996E-16      0.33191725E-16     -0.19426573E-07
      0.40000000E-01     -0.34430916E-07      0.14846501E-14     -0.34430917E-07     -0.91716794E-16     -0.77664993E-16      0.13146020E-14     -0.34430915E-07      0.14014160E-14     -0.50090952E-16      0.58776165E-16     -0.34430916E-07
      0.50000000E-01     -0.53587629E-07      0.16624321E-14     -0.53587630E-07     -0.14276921E-15     -0.12096611E-15      0.20467321E-14     -0.53587628E-07      0.21819047E-14     -0.77915376E-16      0.91374550E-16     -0.53587630E-07
      0.60000000E-01     -0.76796899E-07      0.30129709E-14     -0.76796900E-07     -0.20464408E-15     -0.17351538E-15      0.29344378E-14     -0.76796897E-07      0.31282543E-14     -0.11158182E-15      0.13076750E-15     -0.76796900E-07
