FromScratch = true
CalculationMode = gs
PeriodicDimensions = 3
Spacing = 0.3

TheoryLevel = independent_particles

%LatticeVectors
  0.0 | 0.5 | 0.5
  0.5 | 0.0 | 0.5
  0.5 | 0.5 | 0.0
%

a = 4.0*angstrom
%LatticeParameters
 a | a | a
%

%ReducedCoordinates
 "H" | 0.0 | 0.0 | 0.0
%

nk = 4

%KPointsGrid
  nk |  nk |  nk
%

KPointsUseSymmetries = no
KPointsUseTimeReversal = no
ExperimentalFeatures = yes

AllElectronType = full_anc
AllElectronANCParam = 4

SpinComponents = spinors
RelativisticCorrection = fully_relativistic_zora

ExtraStates = 4

DebugTrapSignals=False
